<?xml version="1.0" encoding="UTF-8"?>
<svg id="Layer_1" data-name="Layer 1" xmlns="http://www.w3.org/2000/svg" width="500" height="500" viewBox="0 0 500 500">
  <defs>
    <style>
      .cls-1 {
        fill: #fff;
      }

      .cls-2 {
        fill: #231f20;
      }
    </style>
  </defs>
  <circle class="cls-2" cx="250" cy="250" r="150"/>
  <g>
    <path class="cls-1" d="M138.6245,198.35877h23.05287l22.42225,78.40779,22.63245-78.40779h22.42225l-35.24497,103.28247h-20.39023l-34.89462-103.28247Z"/>
    <path class="cls-1" d="M240.29537,198.35877h21.44127v103.28247h-21.44127v-103.28247Z"/>
    <path class="cls-1" d="M325.71011,264.50439h-21.93176v37.13684h-21.44127v-103.28247h44.98463c10.37029,0,18.63849,2.66264,24.80461,7.98792,6.16612,5.32528,9.24918,13.57106,9.24918,24.73454,0,12.1921-3.08306,20.81065-9.24918,25.85565-6.16612,5.04501-14.97245,7.56751-26.41621,7.56751Zm10.09001-21.51134c2.80278-2.47486,4.20417-6.39875,4.20417-11.77168,0-5.37153-1.414-9.20153-4.23921-11.4914-2.8266-2.28847-6.78553-3.43341-11.87678-3.43341h-20.10995v30.41017h20.10995c5.09125,0,9.06139-1.23743,11.91182-3.71368Z"/>
  </g>
</svg>